%YAML 1.1
%TAG !u! tag:unity3d.com,2011:
--- !u!114 &11400000
MonoBehaviour:
  m_ObjectHideFlags: 0
  m_CorrespondingSourceObject: {fileID: 0}
  m_PrefabInstance: {fileID: 0}
  m_PrefabAsset: {fileID: 0}
  m_GameObject: {fileID: 0}
  m_Enabled: 1
  m_EditorHideFlags: 0
  m_Script: {fileID: 11500000, guid: 1ae0bf75968f05144b753f421da020e2, type: 3}
  m_Name: Part1And2SpawnOffset 1
  m_EditorClassIdentifier: 
  Description: Horizontal Offset used on Part 1 and 2 to instantiate blocks
  Value: {x: 0.1, y: 0, z: 0}
