%YAML 1.1
%TAG !u! tag:unity3d.com,2011:
--- !u!1 &2465276172841564868
GameObject:
  m_ObjectHideFlags: 0
  m_CorrespondingSourceObject: {fileID: 0}
  m_PrefabInstance: {fileID: 0}
  m_PrefabAsset: {fileID: 0}
  serializedVersion: 6
  m_Component:
  - component: {fileID: 2465276172841564866}
  - component: {fileID: 2465276172841564867}
  - component: {fileID: 2465276172841564865}
  m_Layer: 0
  m_Name: _PlaneSpawner
  m_TagString: Untagged
  m_Icon: {fileID: 0}
  m_NavMeshLayer: 0
  m_StaticEditorFlags: 0
  m_IsActive: 1
--- !u!4 &2465276172841564866
Transform:
  m_ObjectHideFlags: 0
  m_CorrespondingSourceObject: {fileID: 0}
  m_PrefabInstance: {fileID: 0}
  m_PrefabAsset: {fileID: 0}
  m_GameObject: {fileID: 2465276172841564868}
  m_LocalRotation: {x: 0, y: 0, z: 0, w: 1}
  m_LocalPosition: {x: 0, y: 0, z: 0}
  m_LocalScale: {x: 1, y: 1, z: 1}
  m_Children: []
  m_Father: {fileID: 0}
  m_RootOrder: 0
  m_LocalEulerAnglesHint: {x: 0, y: 0, z: 0}
--- !u!114 &2465276172841564867
MonoBehaviour:
  m_ObjectHideFlags: 0
  m_CorrespondingSourceObject: {fileID: 0}
  m_PrefabInstance: {fileID: 0}
  m_PrefabAsset: {fileID: 0}
  m_GameObject: {fileID: 2465276172841564868}
  m_Enabled: 1
  m_EditorHideFlags: 0
  m_Script: {fileID: 11500000, guid: c9447c76bbc9be348bf72c70092d9c67, type: 3}
  m_Name: 
  m_EditorClassIdentifier: 
  howManyBlocks: 6
--- !u!114 &2465276172841564865
MonoBehaviour:
  m_ObjectHideFlags: 0
  m_CorrespondingSourceObject: {fileID: 0}
  m_PrefabInstance: {fileID: 0}
  m_PrefabAsset: {fileID: 0}
  m_GameObject: {fileID: 2465276172841564868}
  m_Enabled: 1
  m_EditorHideFlags: 0
  m_Script: {fileID: 11500000, guid: acc33f376336491bbf6037b65661dd74, type: 3}
  m_Name: 
  m_EditorClassIdentifier: 
  transformRoot: {fileID: 2465276172841564866}
  gameObjectsPrefabs:
  - {fileID: 8870641840993213420, guid: aa7346bcc0775d1468e82cb3b8a38bf3, type: 3}
  - {fileID: 1187785465433023570, guid: df2503185935c0d44a87b3b8b75512bd, type: 3}
