%YAML 1.1
%TAG !u! tag:unity3d.com,2011:
--- !u!114 &11400000
MonoBehaviour:
  m_ObjectHideFlags: 0
  m_CorrespondingSourceObject: {fileID: 0}
  m_PrefabInstance: {fileID: 0}
  m_PrefabAsset: {fileID: 0}
  m_GameObject: {fileID: 0}
  m_Enabled: 1
  m_EditorHideFlags: 0
  m_Script: {fileID: 11500000, guid: 3ebe4f24bb3ea784da437bfa2d5c356c, type: 3}
  m_Name: GameMusic
  m_EditorClassIdentifier: 
  Audio:
  - {fileID: 8300000, guid: 75a6c2c9c0c6349418ba80a1472a5254, type: 3}
  - {fileID: 8300000, guid: 60cd6c9b2f219c74dbe4cd04699b939e, type: 3}
  Group: {fileID: -1603455630699957265, guid: 6582960920ad1274880557b7bc734acf, type: 2}
  ComboPitchInfluence: 0
  Random: 1
  Loop: 1
  Disable: 0
  RandomPitch: 0
  Min: 0
  Max: 0
  Description: 
